List species by ecoregion — pm_by_ecoregion • perumammals
…
    A tibble with a subset of rows from peru_mammals
corresponding to species present in at least one of the requested
ecoregions. Returns an empty tibble if no species match the criteria.

    See also

    pm_list_ecoregions() to see available ecoregion codes,
pm_species() for the underlying function.

    Examples

# All species in Yungas
pm_by_ecoregion("YUN")
#> # A tibble: 256 × 5
#>    order        family      genus      species        scientific_name      
#>    <chr>        <chr>       <chr>      <chr>          <chr>                
#>  1 Artiodactyla Cerevidae   Mazama     americana      Mazama americana     
#>  2 Artiodactyla Cerevidae   Mazama     chunyi         Mazama chunyi        
#>  3 Artiodactyla Cerevidae   Mazama     rufina         Mazama rufina        
#>  4 Artiodactyla Cerevidae   Odocoileus peruvianus     Odocoileus peruvianus
#>  5 Artiodactyla Cerevidae   Pudu       mephistophiles Pudu mephistophiles  
#>  6 Artiodactyla Tayassuidae Dicotyles  tajacu         Dicotyles tajacu     
#>  7 Artiodactyla Tayassuidae Tayassu    pecari         Tayassu pecari       
#>  8 Carnivora    Canidae     Atelocynus microtis       Atelocynus microtis  
#>  9 Carnivora    Canidae     Lycalopex  culpaeus       Lycalopex culpaeus   
#> 10 Carnivora    Canidae     Speothos   venaticus      Speothos venaticus   
#> # ℹ 246 more rows
…
# Rodents in Costa and Vertiente Occidental
pm_by_ecoregion(c("COS", "VOC"), order = "Rodentia")
#> # A tibble: 35 × 5
#>    order    family        genus      species     scientific_name       
#>    <chr>    <chr>         <chr>      <chr>       <chr>                 
#>  1 Rodentia Caviidae      Cavia      porcellus   Cavia porcellus       
#>  2 Rodentia Caviidae      Cavia      tschudii    Cavia tschudii        
#>  3 Rodentia Chinchillidae Lagidium   viscacia    Lagidium viscacia     
#>  4 Rodentia Cricetidae    Abrothrix  andina      Abrothrix andina      
#>  5 Rodentia Cricetidae    Aegialomys baroni      Aegialomys baroni     
#>  6 Rodentia Cricetidae    Aegialomys ica         Aegialomys ica        
#>  7 Rodentia Cricetidae    Aegialomys xanthaeolus Aegialomys xanthaeolus
#>  8 Rodentia Cricetidae    Akodon     juninensis  Akodon juninensis     
#>  9 Rodentia Cricetidae    Akodon     mollis      Akodon mollis         
#> 10 Rodentia Cricetidae    Akodon     sp. Villa   Akodon sp. Villa      
#> # ℹ 25 more rows

# Bats in multiple ecoregions
pm_by_ecoregion(c("YUN", "SB"), order = "Chiroptera")
#> # A tibble: 161 × 5
#>    order      family         genus          species      scientific_name        
#>    <chr>      <chr>          <chr>          <chr>        <chr>                  
#>  1 Chiroptera Emballonuridae Centronycteris centralis    Centronycteris central…
#>  2 Chiroptera Emballonuridae Centronycteris maximiliani  Centronycteris maximil…
#>  3 Chiroptera Emballonuridae Cormura        brevirostris Cormura brevirostris   
#>  4 Chiroptera Emballonuridae Cyttarops      alecto       Cyttarops alecto       
#>  5 Chiroptera Emballonuridae Diclidurus     albus        Diclidurus albus       
#>  6 Chiroptera Emballonuridae Diclidurus     isabella     Diclidurus isabella    
#>  7 Chiroptera Emballonuridae Peropteryx     kappleri     Peropteryx kappleri    
#>  8 Chiroptera Emballonuridae Peropteryx     leucoptera   Peropteryx leucoptera  
#>  9 Chiroptera Emballonuridae Peropteryx     macrotis     Peropteryx macrotis    
#> 10 Chiroptera Emballonuridae Peropteryx     pallidoptera Peropteryx pallidoptera
#> # ℹ 151 more rows
…
