List taxonomic families in the Peruvian mammal backbone — pm_list_families • perumammals
…
n_genera
Number of genera in the family

n_species
Number of species in the family

n_endemic
Number of endemic species to Peru in the family

    Examples

# All families
pm_list_families()
#> # A tibble: 51 × 5
#>    order        family          n_genera n_species n_endemic
#>    <chr>        <chr>              <int>     <int>     <int>
#>  1 Artiodactyla Balaenidae             1         1         0
#>  2 Artiodactyla Balaenopteridae        2         6         0
#>  3 Artiodactyla Camelidae              2         4         0
#>  4 Artiodactyla Cerevidae              5         8         0
#>  5 Artiodactyla Delphinidae           13        17         0
#>  6 Artiodactyla Iniidae                1         1         0
#>  7 Artiodactyla Phocoenidae            1         1         0
#>  8 Artiodactyla Physeteridae           2         3         0
#>  9 Artiodactyla Tayassuidae            2         2         0
#> 10 Artiodactyla Ziphiidae              2         3         0
#> # ℹ 41 more rows
…
