…
## Exploring taxonomic families

### List all families

``` r
# Get summary of all families
families <- pm_list_families()
families
#> # A tibble: 51 × 5
#>    order        family          n_genera n_species n_endemic
#>    <chr>        <chr>              <int>     <int>     <int>
#>  1 Artiodactyla Balaenidae             1         1         0
#>  2 Artiodactyla Balaenopteridae        2         6         0
#>  3 Artiodactyla Camelidae              2         4         0
#>  4 Artiodactyla Cerevidae              5         8         0
#>  5 Artiodactyla Delphinidae           13        17         0
#>  6 Artiodactyla Iniidae                1         1         0
#>  7 Artiodactyla Phocoenidae            1         1         0
#>  8 Artiodactyla Physeteridae           2         3         0
#>  9 Artiodactyla Tayassuidae            2         2         0
#> 10 Artiodactyla Ziphiidae              2         3         0
#> # ℹ 41 more rows
…
### Filter by family

``` r
# Get summary for bat species (Phyllostomidae)
pm_list_families() |> 
  filter(family == "Phyllostomidae")
#> # A tibble: 1 × 5
#>   order      family         n_genera n_species n_endemic
#>   <chr>      <chr>             <int>     <int>     <int>
#> 1 Chiroptera Phyllostomidae       38       107         3

# Get species list for a specific family
 pm_species(family = "Phyllostomidae")
#> # A tibble: 107 × 5
#>    order      family         genus    species       scientific_name       
#>    <chr>      <chr>          <chr>    <chr>         <chr>                 
#>  1 Chiroptera Phyllostomidae Anoura   aequatoris    Anoura aequatoris     
#>  2 Chiroptera Phyllostomidae Anoura   caudifer      Anoura caudifer       
#>  3 Chiroptera Phyllostomidae Anoura   cultrata      Anoura cultrata       
#>  4 Chiroptera Phyllostomidae Anoura   fistulata     Anoura fistulata      
#>  5 Chiroptera Phyllostomidae Anoura   geoffroyi     Anoura geoffroyi      
#>  6 Chiroptera Phyllostomidae Anoura   javieri       Anoura javieri        
#>  7 Chiroptera Phyllostomidae Anoura   latidens      Anoura latidens       
#>  8 Chiroptera Phyllostomidae Anoura   peruana       Anoura peruana        
#>  9 Chiroptera Phyllostomidae Artibeus aequatorialis Artibeus aequatorialis
#> 10 Chiroptera Phyllostomidae Artibeus anderseni     Artibeus anderseni    
#> # ℹ 97 more rows
```

## Analyzing endemic species

### Get endemic species list

``` r
# List all endemic species
endemic_mammals <- pm_species(endemic = TRUE)
endemic_mammals
#> # A tibble: 87 × 5
#>    order      family           genus         species   scientific_name     
#>    <chr>      <chr>            <chr>         <chr>     <chr>               
#>  1 Chiroptera Molossidae       Eumops        chiribaya Eumops chiribaya    
#>  2 Chiroptera Molossidae       Mormopterus   phrudus   Mormopterus phrudus 
#>  3 Chiroptera Molossidae       Tomopeas      ravus     Tomopeas ravus      
#>  4 Chiroptera Phyllostomidae   Anoura        javieri   Anoura javieri      
#>  5 Chiroptera Phyllostomidae   Hsunycteris   dashe     Hsunycteris dashe   
#>  6 Chiroptera Phyllostomidae   Micronycteris matses    Micronycteris matses
#>  7 Chiroptera Vespertilionidae Eptesicus     mochica   Eptesicus mochica   
#>  8 Chiroptera Vespertilionidae Lasiurus      arequipae Lasiurus arequipae  
#>  9 Chiroptera Vespertilionidae Myotis        bakeri    Myotis bakeri       
#> 10 Cingulata  Dasypodidae      Dasypus       pilosus   Dasypus pilosus     
#> # ℹ 77 more rows
…
# Endemic species in Yungas
pm_by_ecoregion(ecoregion = "YUN", endemic = TRUE)
#> # A tibble: 48 × 5
#>    order           family         genus       species     scientific_name      
#>    <chr>           <chr>          <chr>       <chr>       <chr>                
#>  1 Chiroptera      Molossidae     Mormopterus phrudus     Mormopterus phrudus  
#>  2 Chiroptera      Phyllostomidae Anoura      javieri     Anoura javieri       
#>  3 Cingulata       Dasypodidae    Dasypus     pilosus     Dasypus pilosus      
#>  4 Didelphimorphia Didelphidae    Marmosa     andersoni   Marmosa andersoni    
#>  5 Didelphimorphia Didelphidae    Marmosa     parda       Marmosa parda        
#>  6 Didelphimorphia Didelphidae    Marmosops   juninensis  Marmosops juninensis 
#>  7 Didelphimorphia Didelphidae    Monodelphis gardeni     Monodelphis gardeni  
#>  8 Didelphimorphia Didelphidae    Philander   nigratus    Philander nigratus   
#>  9 Eulipotyphla    Soricidae      Cryptotis   evaristoi   Cryptotis evaristoi  
#> 10 Eulipotyphla    Soricidae      Cryptotis   peruviensis Cryptotis peruviensis
#> # ℹ 38 more rows
```
…
### Example 2: Endemic species summary

``` r
# Get all endemic mammals
endemic_species <- pm_species(endemic = TRUE)
endemic_species
#> # A tibble: 87 × 5
#>    order      family           genus         species   scientific_name     
#>    <chr>      <chr>            <chr>         <chr>     <chr>               
#>  1 Chiroptera Molossidae       Eumops        chiribaya Eumops chiribaya    
#>  2 Chiroptera Molossidae       Mormopterus   phrudus   Mormopterus phrudus 
#>  3 Chiroptera Molossidae       Tomopeas      ravus     Tomopeas ravus      
#>  4 Chiroptera Phyllostomidae   Anoura        javieri   Anoura javieri      
#>  5 Chiroptera Phyllostomidae   Hsunycteris   dashe     Hsunycteris dashe   
#>  6 Chiroptera Phyllostomidae   Micronycteris matses    Micronycteris matses
#>  7 Chiroptera Vespertilionidae Eptesicus     mochica   Eptesicus mochica   
#>  8 Chiroptera Vespertilionidae Lasiurus      arequipae Lasiurus arequipae  
#>  9 Chiroptera Vespertilionidae Myotis        bakeri    Myotis bakeri       
#> 10 Cingulata  Dasypodidae      Dasypus       pilosus   Dasypus pilosus     
#> # ℹ 77 more rows
…
### Example 3: Ecoregion-specific analysis

``` r
# Focus on Selva Baja (Amazon lowlands)

selva_baja_species <- pm_by_ecoregion(ecoregion = "SB")
selva_baja_species
#> # A tibble: 320 × 5
#>    order        family      genus       species     scientific_name       
#>    <chr>        <chr>       <chr>       <chr>       <chr>                 
#>  1 Artiodactyla Cerevidae   Blastocerus dichotomus  Blastocerus dichotomus
#>  2 Artiodactyla Cerevidae   Mazama      americana   Mazama americana      
#>  3 Artiodactyla Cerevidae   Mazama      nemorivaga  Mazama nemorivaga     
#>  4 Artiodactyla Cerevidae   Odocoileus  peruvianus  Odocoileus peruvianus 
#>  5 Artiodactyla Delphinidae Sotalia     fluviatilis Sotalia fluviatilis   
#>  6 Artiodactyla Iniidae     Inia        geoffrensis Inia geoffrensis      
#>  7 Artiodactyla Tayassuidae Dicotyles   tajacu      Dicotyles tajacu      
#>  8 Artiodactyla Tayassuidae Tayassu     pecari      Tayassu pecari        
#>  9 Carnivora    Canidae     Atelocynus  microtis    Atelocynus microtis   
#> 10 Carnivora    Canidae     Speothos    venaticus   Speothos venaticus    
#> # ℹ 310 more rows
…
